{
  "name": "jnktn.tv",
  "description": "A streaming platform which makes use of, and promotes open-source software",
  "repository": {
    "url": "https://codeberg.org/jnktn.tv/jnktn.tv",
    "license": "AGPL-3.0+"
  },
  "keywords": [
    "Music",
    "Owncast",
    "live"
  ]
}
