<?xml version="1.0" standalone="no"?>
<!DOCTYPE svg PUBLIC "-//W3C//DTD SVG 20010904//EN"
 "http://www.w3.org/TR/2001/REC-SVG-20010904/DTD/svg10.dtd">
<svg version="1.0" xmlns="http://www.w3.org/2000/svg"
 width="295.000000pt" height="295.000000pt" viewBox="0 0 295.000000 295.000000"
 preserveAspectRatio="xMidYMid meet">
<metadata>
Created by potrace 1.11, written by Peter Selinger 2001-2013
</metadata>
<g transform="translate(0.000000,295.000000) scale(0.100000,-0.100000)"
fill="#000000" stroke="none">
<path d="M1320 2943 c-480 -69 -862 -346 -1061 -769 -91 -191 -123 -343 -124
-569 0 -174 20 -303 70 -446 17 -47 86 -201 95 -209 3 -3 14 -21 24 -40 65
-117 190 -255 381 -419 61 -52 115 -99 120 -105 6 -6 42 -38 80 -71 39 -33 86
-74 105 -91 151 -136 226 -182 340 -208 92 -22 217 -15 306 16 104 36 149 69
354 252 24 22 141 124 285 250 190 166 293 294 384 478 103 209 140 378 136
618 -4 220 -38 366 -135 565 -105 218 -282 414 -496 553 -110 71 -308 148
-459 178 -73 15 -343 26 -405 17z m381 -328 c57 -13 132 -35 166 -49 332 -137
575 -441 632 -791 15 -89 20 -215 9 -215 -4 0 -8 8 -8 18 0 29 -106 233 -155
297 -211 278 -520 437 -855 438 -148 1 -211 -8 -343 -49 -277 -88 -509 -289
-646 -561 -22 -44 -41 -87 -41 -95 0 -8 -6 -23 -14 -33 -12 -17 -13 -10 -10
51 11 237 77 425 209 599 158 208 375 344 635 398 111 23 301 20 421 -8z m-41
-630 c185 -48 356 -167 456 -315 86 -129 137 -299 133 -445 -2 -83 -7 -84 -33
-13 -45 122 -180 283 -304 362 -142 90 -268 127 -437 128 -165 0 -309 -44
-450 -137 -61 -41 -170 -149 -211 -210 -32 -47 -94 -174 -94 -192 0 -6 -5 -15
-11 -19 -17 -10 -4 216 16 291 79 285 323 509 610 560 92 16 243 12 325 -10z
m-45 -609 c197 -58 337 -233 352 -443 8 -100 0 -116 -33 -67 -96 144 -249 230
-429 241 -168 10 -301 -43 -427 -170 -43 -42 -78 -82 -78 -87 0 -6 -5 -10 -11
-10 -18 0 -3 159 20 225 87 248 353 384 606 311z m-28 -602 c185 -89 179 -354
-11 -442 -158 -75 -347 43 -347 216 0 69 16 117 56 167 35 43 72 66 135 81 59
14 104 8 167 -22z"/>
</g>
</svg>
